<svg width="30" height="30" viewBox="0 0 30 30" fill="none" xmlns="http://www.w3.org/2000/svg">
<path fill-rule="evenodd" clip-rule="evenodd" d="M4.1967 19.8075C5.60322 18.4886 7.51088 17.7477 9.5 17.7477H21.5C23.4891 17.7477 25.3968 18.4886 26.8033 19.8075C28.2098 21.1264 29 22.9152 29 24.7804V27.5935C29 28.3703 28.3284 29 27.5 29C26.6716 29 26 28.3703 26 27.5935V24.7804C26 23.6613 25.5259 22.588 24.682 21.7967C23.8381 21.0053 22.6935 20.5608 21.5 20.5608H9.5C8.30653 20.5608 7.16193 21.0053 6.31802 21.7967C5.47411 22.588 5 23.6613 5 24.7804V27.5935C5 28.3703 4.32843 29 3.5 29C2.67157 29 2 28.3703 2 27.5935V24.7804C2 22.9152 2.79018 21.1264 4.1967 19.8075Z" fill="black"/>
<path fill-rule="evenodd" clip-rule="evenodd" d="M15.5655 3.83489C13.2129 3.83489 11.3058 5.73873 11.3058 8.08723C11.3058 10.4357 13.2129 12.3396 15.5655 12.3396C17.9181 12.3396 19.8252 10.4357 19.8252 8.08723C19.8252 5.73873 17.9181 3.83489 15.5655 3.83489ZM8.466 8.08723C8.466 4.17306 11.6446 1 15.5655 1C19.4865 1 22.665 4.17306 22.665 8.08723C22.665 12.0014 19.4865 15.1745 15.5655 15.1745C11.6446 15.1745 8.466 12.0014 8.466 8.08723Z" fill="black"/>
<path fill-rule="evenodd" clip-rule="evenodd" d="M20.0874 21.1729C20.3039 21.1729 20.4958 21.3123 20.5628 21.5182L21.2744 23.7044H23.5777C23.7943 23.7044 23.9864 23.8439 24.0532 24.0501C24.1201 24.2562 24.0466 24.4819 23.8712 24.6091L22.0086 25.9601L22.7199 28.1456C22.787 28.3515 22.7138 28.5772 22.5386 28.7047C22.3635 28.8321 22.1262 28.8323 21.9509 28.7051L20.0874 27.3535L18.2238 28.7051C18.0485 28.8323 17.8112 28.8321 17.6361 28.7047C17.461 28.5772 17.3878 28.3515 17.4548 28.1456L18.1662 25.9601L16.3035 24.6091C16.1281 24.4819 16.0546 24.2562 16.1215 24.0501C16.1884 23.8439 16.3804 23.7044 16.5971 23.7044H18.9003L19.6119 21.5182C19.6789 21.3123 19.8708 21.1729 20.0874 21.1729ZM20.0874 23.2884L19.7389 24.3591C19.6719 24.565 19.4799 24.7044 19.2634 24.7044H18.1381L19.0478 25.3641C19.2233 25.4915 19.2968 25.7174 19.2296 25.9236L18.8817 26.9926L19.7938 26.3311C19.9689 26.2041 20.2058 26.2041 20.3809 26.3311L21.293 26.9926L20.9451 25.9236C20.878 25.7174 20.9514 25.4915 21.127 25.3641L22.0367 24.7044H20.9113C20.6948 24.7044 20.5029 24.565 20.4359 24.3591L20.0874 23.2884Z" fill="black"/>
</svg>
