<svg width="24" height="24" viewBox="0 0 24 24" fill="none" xmlns="http://www.w3.org/2000/svg">
<g clip-path="url(#clip0)">
<path fill-rule="evenodd" clip-rule="evenodd" d="M9.62762 0.776458C10.4263 0.188131 11.4151 -0.0824518 12.402 0.017239C13.3889 0.11693 14.3036 0.579782 14.9685 1.31594C15.6332 2.05185 16.0007 3.0084 16 4M16 4.00101L16 9.34C16 9.89229 15.5523 10.34 15 10.34C14.4477 10.34 14 9.89229 14 9.34L14 3.999C14.0005 3.50302 13.8167 3.02454 13.4843 2.65646C13.1518 2.28838 12.6945 2.05696 12.201 2.00711C11.7075 1.95727 11.2131 2.09256 10.8138 2.38672C10.4145 2.68089 10.1387 3.11294 10.04 3.599C9.9301 4.14024 9.40224 4.48991 8.86101 4.38C8.31977 4.2701 7.9701 3.74225 8.08 3.20101C8.2774 2.22888 8.82896 1.36479 9.62762 0.776458M0.292893 0.292896C0.683417 -0.0976282 1.31658 -0.0976282 1.70711 0.292896L17.4951 16.0809C17.5681 16.1225 17.637 16.1741 17.6998 16.2357C17.7678 16.3023 17.8242 16.3762 17.8692 16.4549L23.7071 22.2929C24.0976 22.6834 24.0976 23.3166 23.7071 23.7071C23.3166 24.0976 22.6834 24.0976 22.2929 23.7071L16.9329 18.3471C15.7863 19.2402 14.4188 19.7947 13 19.976V22H16C16.5523 22 17 22.4477 17 23C17 23.5523 16.5523 24 16 24H8C7.44772 24 7 23.5523 7 23C7 22.4477 7.44772 22 8 22H11V19.9828C10.3032 19.8979 9.61309 19.7206 8.94917 19.4467C5.96365 18.2152 3.97794 15.2257 4 11.9965V10C4 9.44772 4.44772 9 5 9C5.55228 9 6 9.44772 6 10V12.0073C5.98233 14.4227 7.47886 16.6767 9.71183 17.5978C10.3607 17.8655 11.0448 18.0095 11.7304 18.0368C11.8162 18.0128 11.9066 18 12 18C12.0906 18 12.1784 18.0121 12.2619 18.0346C13.4177 17.9795 14.5528 17.5962 15.504 16.9182L14.0298 15.4441C13.6448 15.6708 13.2224 15.8327 12.7794 15.9207C12.0039 16.0747 11.2002 15.9955 10.4697 15.6931C9.73927 15.3906 9.11481 14.8785 8.67524 14.2213C8.23567 13.5642 8.0007 12.7915 8 12.0009L8 9.41422L0.292893 1.70711C-0.0976311 1.31659 -0.0976311 0.68342 0.292893 0.292896ZM10 11.4142V11.9991C10.0003 12.3944 10.1178 12.7808 10.3376 13.1093C10.5574 13.4379 10.8696 13.694 11.2349 13.8452C11.6001 13.9965 12.002 14.0361 12.3897 13.959C12.432 13.9506 12.474 13.9409 12.5156 13.9298L10 11.4142ZM19 9C19.5523 9 20 9.44772 20 10C20 10.2072 20.0039 10.4276 20.0079 10.6578C20.0229 11.5048 20.0401 12.4823 19.8743 13.4066C19.7768 13.9502 19.257 14.3118 18.7134 14.2143C18.1698 14.1168 17.8082 13.597 17.9057 13.0534C18.0336 12.3405 18.022 11.629 18.0087 10.818C18.0044 10.5568 18 10.2852 18 10C18 9.44772 18.4477 9 19 9Z" />
</g>
<defs>
<clipPath id="clip0">
<rect width="24" height="24" fill="white"/>
</clipPath>
</defs>
</svg>
