<svg width="24" height="24" viewBox="0 0 24 24" fill="none" xmlns="http://www.w3.org/2000/svg">
<path d="M5 13.5C4.7 13.5 4.4 13.4 4.2 13.1C3.8 12.7 3.9 12 4.3 11.7C8.8 7.99998 15.2 7.99998 19.7 11.7C20.1 12.1 20.2 12.7 19.8 13.1C19.4 13.5 18.8 13.6 18.4 13.2C14.7 10.1 9.3 10.1 5.6 13.2C5.5 13.5 5.2 13.5 5 13.5Z" />
<path d="M1.4 9.99998C1.1 9.99998 0.8 9.89997 0.6 9.69998C0.2 9.29997 0.3 8.69998 0.7 8.29998C7.1 2.69998 16.8 2.69998 23.2 8.29998C23.6 8.69998 23.7 9.29997 23.3 9.69998C22.9 10.1 22.3 10.2 21.9 9.79998C16.2 4.79998 7.7 4.79998 2.1 9.79998C1.9 9.89998 1.7 9.99998 1.4 9.99998Z" />
<path d="M15.5 17.1C15.3 17.1 15.1 17 14.9 16.9C13.2 15.7 10.8 15.7 9.1 16.9C8.6 17.2 8 17.1 7.7 16.7C7.4 16.2 7.5 15.6 7.9 15.3C10.3 13.6 13.6 13.6 16 15.3C16.5 15.6 16.6 16.2 16.2 16.7C16.1 17 15.8 17.1 15.5 17.1Z" />
<path d="M12 21C11.9 21 11.7 21 11.6 20.9C11.5 20.9 11.4 20.8 11.3 20.7C11.1 20.5 11 20.3 11 20C11 19.9 11 19.7 11.1 19.6C11.2 19.5 11.2 19.4 11.3 19.3C11.7 18.9 12.3 18.9 12.7 19.3C12.9 19.5 13 19.8 13 20C13 20.3 12.9 20.5 12.7 20.7C12.5 20.9 12.3 21 12 21Z" />
</svg>
